slot,oh,vfat,chamber
0,0,0,4
0,0,1,4
0,0,2,5
0,0,3,5
0,0,4,2
0,0,5,2
0,0,6,3
0,0,7,3
0,0,8,0
0,0,9,0
0,0,10,1
0,0,11,1
0,1,1,4
0,1,3,4
0,1,5,4
0,1,7,4
1,0,4,6
1,0,5,6
1,0,6,6
1,0,7,6
1,0,12,6
1,0,13,6
1,0,14,6
1,0,15,6
1,0,20,6
1,0,21,6
1,0,22,6
1,0,23,6
