vfat,channel,eta,strip
2,0,4,320
2,1,3,320
2,2,4,319
2,3,3,319
2,4,4,318
2,5,3,318
2,6,4,317
2,7,3,317
2,8,4,316
2,9,3,316
2,10,4,315
2,11,3,315
2,12,4,314
2,13,3,314
2,14,4,313
2,15,3,313
2,16,4,312
2,17,3,312
2,18,4,311
2,19,3,311
2,20,4,310
2,21,3,310
2,22,4,309
2,23,3,309
2,24,4,308
2,25,3,308
2,26,4,307
2,27,3,307
2,28,4,306
2,29,3,306
2,30,4,305
2,31,3,305
2,32,4,304
2,33,3,304
2,34,4,303
2,35,3,303
2,36,4,302
2,37,3,302
2,38,4,301
2,39,3,301
2,40,4,300
2,41,3,300
2,42,4,299
2,43,3,299
2,44,4,298
2,45,3,298
2,46,4,297
2,47,3,297
2,48,4,296
2,49,3,296
2,50,4,295
2,51,3,295
2,52,4,294
2,53,3,294
2,54,4,293
2,55,3,293
2,56,4,292
2,57,3,292
2,58,4,291
2,59,3,291
2,60,4,290
2,61,3,290
2,62,4,289
2,63,3,289
2,64,4,288
2,65,3,288
2,66,4,287
2,67,3,287
2,68,4,286
2,69,3,286
2,70,4,285
2,71,3,285
2,72,4,284
2,73,3,284
2,74,4,283
2,75,3,283
2,76,4,282
2,77,3,282
2,78,4,281
2,79,3,281
2,80,4,280
2,81,3,280
2,82,4,279
2,83,3,279
2,84,4,278
2,85,3,278
2,86,4,277
2,87,3,277
2,88,4,276
2,89,3,276
2,90,4,275
2,91,3,275
2,92,4,274
2,93,3,274
2,94,4,273
2,95,3,273
2,96,4,272
2,97,3,272
2,98,4,271
2,99,3,271
2,100,4,270
2,101,3,270
2,102,4,269
2,103,3,269
2,104,4,268
2,105,3,268
2,106,4,267
2,107,3,267
2,108,4,266
2,109,3,266
2,110,4,265
2,111,3,265
2,112,4,264
2,113,3,264
2,114,4,263
2,115,3,263
2,116,4,262
2,117,3,262
2,118,4,261
2,119,3,261
2,120,4,260
2,121,3,260
2,122,4,259
2,123,3,259
2,124,4,258
2,125,3,258
2,126,4,257
2,127,3,257
0,0,4,384
0,1,3,384
0,2,4,383
0,3,3,383
0,4,4,382
0,5,3,382
0,6,4,381
0,7,3,381
0,8,4,380
0,9,3,380
0,10,4,379
0,11,3,379
0,12,4,378
0,13,3,378
0,14,4,377
0,15,3,377
0,16,4,376
0,17,3,376
0,18,4,375
0,19,3,375
0,20,4,374
0,21,3,374
0,22,4,373
0,23,3,373
0,24,4,372
0,25,3,372
0,26,4,371
0,27,3,371
0,28,4,370
0,29,3,370
0,30,4,369
0,31,3,369
0,32,4,368
0,33,3,368
0,34,4,367
0,35,3,367
0,36,4,366
0,37,3,366
0,38,4,365
0,39,3,365
0,40,4,364
0,41,3,364
0,42,4,363
0,43,3,363
0,44,4,362
0,45,3,362
0,46,4,361
0,47,3,361
0,48,4,360
0,49,3,360
0,50,4,359
0,51,3,359
0,52,4,358
0,53,3,358
0,54,4,357
0,55,3,357
0,56,4,356
0,57,3,356
0,58,4,355
0,59,3,355
0,60,4,354
0,61,3,354
0,62,4,353
0,63,3,353
0,64,4,352
0,65,3,352
0,66,4,351
0,67,3,351
0,68,4,350
0,69,3,350
0,70,4,349
0,71,3,349
0,72,4,348
0,73,3,348
0,74,4,347
0,75,3,347
0,76,4,346
0,77,3,346
0,78,4,345
0,79,3,345
0,80,4,344
0,81,3,344
0,82,4,343
0,83,3,343
0,84,4,342
0,85,3,342
0,86,4,341
0,87,3,341
0,88,4,340
0,89,3,340
0,90,4,339
0,91,3,339
0,92,4,338
0,93,3,338
0,94,4,337
0,95,3,337
0,96,4,336
0,97,3,336
0,98,4,335
0,99,3,335
0,100,4,334
0,101,3,334
0,102,4,333
0,103,3,333
0,104,4,332
0,105,3,332
0,106,4,331
0,107,3,331
0,108,4,330
0,109,3,330
0,110,4,329
0,111,3,329
0,112,4,328
0,113,3,328
0,114,4,327
0,115,3,327
0,116,4,326
0,117,3,326
0,118,4,325
0,119,3,325
0,120,4,324
0,121,3,324
0,122,4,323
0,123,3,323
0,124,4,322
0,125,3,322
0,126,4,321
0,127,3,321
4,0,4,256
4,1,3,256
4,2,4,255
4,3,3,255
4,4,4,254
4,5,3,254
4,6,4,253
4,7,3,253
4,8,4,252
4,9,3,252
4,10,4,251
4,11,3,251
4,12,4,250
4,13,3,250
4,14,4,249
4,15,3,249
4,16,4,248
4,17,3,248
4,18,4,247
4,19,3,247
4,20,4,246
4,21,3,246
4,22,4,245
4,23,3,245
4,24,4,244
4,25,3,244
4,26,4,243
4,27,3,243
4,28,4,242
4,29,3,242
4,30,4,241
4,31,3,241
4,32,4,240
4,33,3,240
4,34,4,239
4,35,3,239
4,36,4,238
4,37,3,238
4,38,4,237
4,39,3,237
4,40,4,236
4,41,3,236
4,42,4,235
4,43,3,235
4,44,4,234
4,45,3,234
4,46,4,233
4,47,3,233
4,48,4,232
4,49,3,232
4,50,4,231
4,51,3,231
4,52,4,230
4,53,3,230
4,54,4,229
4,55,3,229
4,56,4,228
4,57,3,228
4,58,4,227
4,59,3,227
4,60,4,226
4,61,3,226
4,62,4,225
4,63,3,225
4,64,4,224
4,65,3,224
4,66,4,223
4,67,3,223
4,68,4,222
4,69,3,222
4,70,4,221
4,71,3,221
4,72,4,220
4,73,3,220
4,74,4,219
4,75,3,219
4,76,4,218
4,77,3,218
4,78,4,217
4,79,3,217
4,80,4,216
4,81,3,216
4,82,4,215
4,83,3,215
4,84,4,214
4,85,3,214
4,86,4,213
4,87,3,213
4,88,4,212
4,89,3,212
4,90,4,211
4,91,3,211
4,92,4,210
4,93,3,210
4,94,4,209
4,95,3,209
4,96,4,208
4,97,3,208
4,98,4,207
4,99,3,207
4,100,4,206
4,101,3,206
4,102,4,205
4,103,3,205
4,104,4,204
4,105,3,204
4,106,4,203
4,107,3,203
4,108,4,202
4,109,3,202
4,110,4,201
4,111,3,201
4,112,4,200
4,113,3,200
4,114,4,199
4,115,3,199
4,116,4,198
4,117,3,198
4,118,4,197
4,119,3,197
4,120,4,196
4,121,3,196
4,122,4,195
4,123,3,195
4,124,4,194
4,125,3,194
4,126,4,193
4,127,3,193
10,0,4,64
10,1,3,64
10,2,4,63
10,3,3,63
10,4,4,62
10,5,3,62
10,6,4,61
10,7,3,61
10,8,4,60
10,9,3,60
10,10,4,59
10,11,3,59
10,12,4,58
10,13,3,58
10,14,4,57
10,15,3,57
10,16,4,56
10,17,3,56
10,18,4,55
10,19,3,55
10,20,4,54
10,21,3,54
10,22,4,53
10,23,3,53
10,24,4,52
10,25,3,52
10,26,4,51
10,27,3,51
10,28,4,50
10,29,3,50
10,30,4,49
10,31,3,49
10,32,4,48
10,33,3,48
10,34,4,47
10,35,3,47
10,36,4,46
10,37,3,46
10,38,4,45
10,39,3,45
10,40,4,44
10,41,3,44
10,42,4,43
10,43,3,43
10,44,4,42
10,45,3,42
10,46,4,41
10,47,3,41
10,48,4,40
10,49,3,40
10,50,4,39
10,51,3,39
10,52,4,38
10,53,3,38
10,54,4,37
10,55,3,37
10,56,4,36
10,57,3,36
10,58,4,35
10,59,3,35
10,60,4,34
10,61,3,34
10,62,4,33
10,63,3,33
10,64,4,32
10,65,3,32
10,66,4,31
10,67,3,31
10,68,4,30
10,69,3,30
10,70,4,29
10,71,3,29
10,72,4,28
10,73,3,28
10,74,4,27
10,75,3,27
10,76,4,26
10,77,3,26
10,78,4,25
10,79,3,25
10,80,4,24
10,81,3,24
10,82,4,23
10,83,3,23
10,84,4,22
10,85,3,22
10,86,4,21
10,87,3,21
10,88,4,20
10,89,3,20
10,90,4,19
10,91,3,19
10,92,4,18
10,93,3,18
10,94,4,17
10,95,3,17
10,96,4,16
10,97,3,16
10,98,4,15
10,99,3,15
10,100,4,14
10,101,3,14
10,102,4,13
10,103,3,13
10,104,4,12
10,105,3,12
10,106,4,11
10,107,3,11
10,108,4,10
10,109,3,10
10,110,4,9
10,111,3,9
10,112,4,8
10,113,3,8
10,114,4,7
10,115,3,7
10,116,4,6
10,117,3,6
10,118,4,5
10,119,3,5
10,120,4,4
10,121,3,4
10,122,4,3
10,123,3,3
10,124,4,2
10,125,3,2
10,126,4,1
10,127,3,1
6,0,4,192
6,1,3,192
6,2,4,191
6,3,3,191
6,4,4,190
6,5,3,190
6,6,4,189
6,7,3,189
6,8,4,188
6,9,3,188
6,10,4,187
6,11,3,187
6,12,4,186
6,13,3,186
6,14,4,185
6,15,3,185
6,16,4,184
6,17,3,184
6,18,4,183
6,19,3,183
6,20,4,182
6,21,3,182
6,22,4,181
6,23,3,181
6,24,4,180
6,25,3,180
6,26,4,179
6,27,3,179
6,28,4,178
6,29,3,178
6,30,4,177
6,31,3,177
6,32,4,176
6,33,3,176
6,34,4,175
6,35,3,175
6,36,4,174
6,37,3,174
6,38,4,173
6,39,3,173
6,40,4,172
6,41,3,172
6,42,4,171
6,43,3,171
6,44,4,170
6,45,3,170
6,46,4,169
6,47,3,169
6,48,4,168
6,49,3,168
6,50,4,167
6,51,3,167
6,52,4,166
6,53,3,166
6,54,4,165
6,55,3,165
6,56,4,164
6,57,3,164
6,58,4,163
6,59,3,163
6,60,4,162
6,61,3,162
6,62,4,161
6,63,3,161
6,64,4,160
6,65,3,160
6,66,4,159
6,67,3,159
6,68,4,158
6,69,3,158
6,70,4,157
6,71,3,157
6,72,4,156
6,73,3,156
6,74,4,155
6,75,3,155
6,76,4,154
6,77,3,154
6,78,4,153
6,79,3,153
6,80,4,152
6,81,3,152
6,82,4,151
6,83,3,151
6,84,4,150
6,85,3,150
6,86,4,149
6,87,3,149
6,88,4,148
6,89,3,148
6,90,4,147
6,91,3,147
6,92,4,146
6,93,3,146
6,94,4,145
6,95,3,145
6,96,4,144
6,97,3,144
6,98,4,143
6,99,3,143
6,100,4,142
6,101,3,142
6,102,4,141
6,103,3,141
6,104,4,140
6,105,3,140
6,106,4,139
6,107,3,139
6,108,4,138
6,109,3,138
6,110,4,137
6,111,3,137
6,112,4,136
6,113,3,136
6,114,4,135
6,115,3,135
6,116,4,134
6,117,3,134
6,118,4,133
6,119,3,133
6,120,4,132
6,121,3,132
6,122,4,131
6,123,3,131
6,124,4,130
6,125,3,130
6,126,4,129
6,127,3,129
8,0,4,128
8,1,3,128
8,2,4,127
8,3,3,127
8,4,4,126
8,5,3,126
8,6,4,125
8,7,3,125
8,8,4,124
8,9,3,124
8,10,4,123
8,11,3,123
8,12,4,122
8,13,3,122
8,14,4,121
8,15,3,121
8,16,4,120
8,17,3,120
8,18,4,119
8,19,3,119
8,20,4,118
8,21,3,118
8,22,4,117
8,23,3,117
8,24,4,116
8,25,3,116
8,26,4,115
8,27,3,115
8,28,4,114
8,29,3,114
8,30,4,113
8,31,3,113
8,32,4,112
8,33,3,112
8,34,4,111
8,35,3,111
8,36,4,110
8,37,3,110
8,38,4,109
8,39,3,109
8,40,4,108
8,41,3,108
8,42,4,107
8,43,3,107
8,44,4,106
8,45,3,106
8,46,4,105
8,47,3,105
8,48,4,104
8,49,3,104
8,50,4,103
8,51,3,103
8,52,4,102
8,53,3,102
8,54,4,101
8,55,3,101
8,56,4,100
8,57,3,100
8,58,4,99
8,59,3,99
8,60,4,98
8,61,3,98
8,62,4,97
8,63,3,97
8,64,4,96
8,65,3,96
8,66,4,95
8,67,3,95
8,68,4,94
8,69,3,94
8,70,4,93
8,71,3,93
8,72,4,92
8,73,3,92
8,74,4,91
8,75,3,91
8,76,4,90
8,77,3,90
8,78,4,89
8,79,3,89
8,80,4,88
8,81,3,88
8,82,4,87
8,83,3,87
8,84,4,86
8,85,3,86
8,86,4,85
8,87,3,85
8,88,4,84
8,89,3,84
8,90,4,83
8,91,3,83
8,92,4,82
8,93,3,82
8,94,4,81
8,95,3,81
8,96,4,80
8,97,3,80
8,98,4,79
8,99,3,79
8,100,4,78
8,101,3,78
8,102,4,77
8,103,3,77
8,104,4,76
8,105,3,76
8,106,4,75
8,107,3,75
8,108,4,74
8,109,3,74
8,110,4,73
8,111,3,73
8,112,4,72
8,113,3,72
8,114,4,71
8,115,3,71
8,116,4,70
8,117,3,70
8,118,4,69
8,119,3,69
8,120,4,68
8,121,3,68
8,122,4,67
8,123,3,67
8,124,4,66
8,125,3,66
8,126,4,65
8,127,3,65
9,0,1,65
9,1,2,65
9,2,1,66
9,3,2,66
9,4,1,67
9,5,2,67
9,6,1,68
9,7,2,68
9,8,1,69
9,9,2,69
9,10,1,70
9,11,2,70
9,12,1,71
9,13,2,71
9,14,1,72
9,15,2,72
9,16,1,73
9,17,2,73
9,18,1,74
9,19,2,74
9,20,1,75
9,21,2,75
9,22,1,76
9,23,2,76
9,24,1,77
9,25,2,77
9,26,1,78
9,27,2,78
9,28,1,79
9,29,2,79
9,30,1,80
9,31,2,80
9,32,1,81
9,33,2,81
9,34,1,82
9,35,2,82
9,36,1,83
9,37,2,83
9,38,1,84
9,39,2,84
9,40,1,85
9,41,2,85
9,42,1,86
9,43,2,86
9,44,1,87
9,45,2,87
9,46,1,88
9,47,2,88
9,48,1,89
9,49,2,89
9,50,1,90
9,51,2,90
9,52,1,91
9,53,2,91
9,54,1,92
9,55,2,92
9,56,1,93
9,57,2,93
9,58,1,94
9,59,2,94
9,60,1,95
9,61,2,95
9,62,1,96
9,63,2,96
9,64,1,97
9,65,2,97
9,66,1,98
9,67,2,98
9,68,1,99
9,69,2,99
9,70,1,100
9,71,2,100
9,72,1,101
9,73,2,101
9,74,1,102
9,75,2,102
9,76,1,103
9,77,2,103
9,78,1,104
9,79,2,104
9,80,1,105
9,81,2,105
9,82,1,106
9,83,2,106
9,84,1,107
9,85,2,107
9,86,1,108
9,87,2,108
9,88,1,109
9,89,2,109
9,90,1,110
9,91,2,110
9,92,1,111
9,93,2,111
9,94,1,112
9,95,2,112
9,96,1,113
9,97,2,113
9,98,1,114
9,99,2,114
9,100,1,115
9,101,2,115
9,102,1,116
9,103,2,116
9,104,1,117
9,105,2,117
9,106,1,118
9,107,2,118
9,108,1,119
9,109,2,119
9,110,1,120
9,111,2,120
9,112,1,121
9,113,2,121
9,114,1,122
9,115,2,122
9,116,1,123
9,117,2,123
9,118,1,124
9,119,2,124
9,120,1,125
9,121,2,125
9,122,1,126
9,123,2,126
9,124,1,127
9,125,2,127
9,126,1,128
9,127,2,128
11,0,1,1
11,1,2,1
11,2,1,2
11,3,2,2
11,4,1,3
11,5,2,3
11,6,1,4
11,7,2,4
11,8,1,5
11,9,2,5
11,10,1,6
11,11,2,6
11,12,1,7
11,13,2,7
11,14,1,8
11,15,2,8
11,16,1,9
11,17,2,9
11,18,1,10
11,19,2,10
11,20,1,11
11,21,2,11
11,22,1,12
11,23,2,12
11,24,1,13
11,25,2,13
11,26,1,14
11,27,2,14
11,28,1,15
11,29,2,15
11,30,1,16
11,31,2,16
11,32,1,17
11,33,2,17
11,34,1,18
11,35,2,18
11,36,1,19
11,37,2,19
11,38,1,20
11,39,2,20
11,40,1,21
11,41,2,21
11,42,1,22
11,43,2,22
11,44,1,23
11,45,2,23
11,46,1,24
11,47,2,24
11,48,1,25
11,49,2,25
11,50,1,26
11,51,2,26
11,52,1,27
11,53,2,27
11,54,1,28
11,55,2,28
11,56,1,29
11,57,2,29
11,58,1,30
11,59,2,30
11,60,1,31
11,61,2,31
11,62,1,32
11,63,2,32
11,64,1,33
11,65,2,33
11,66,1,34
11,67,2,34
11,68,1,35
11,69,2,35
11,70,1,36
11,71,2,36
11,72,1,37
11,73,2,37
11,74,1,38
11,75,2,38
11,76,1,39
11,77,2,39
11,78,1,40
11,79,2,40
11,80,1,41
11,81,2,41
11,82,1,42
11,83,2,42
11,84,1,43
11,85,2,43
11,86,1,44
11,87,2,44
11,88,1,45
11,89,2,45
11,90,1,46
11,91,2,46
11,92,1,47
11,93,2,47
11,94,1,48
11,95,2,48
11,96,1,49
11,97,2,49
11,98,1,50
11,99,2,50
11,100,1,51
11,101,2,51
11,102,1,52
11,103,2,52
11,104,1,53
11,105,2,53
11,106,1,54
11,107,2,54
11,108,1,55
11,109,2,55
11,110,1,56
11,111,2,56
11,112,1,57
11,113,2,57
11,114,1,58
11,115,2,58
11,116,1,59
11,117,2,59
11,118,1,60
11,119,2,60
11,120,1,61
11,121,2,61
11,122,1,62
11,123,2,62
11,124,1,63
11,125,2,63
11,126,1,64
11,127,2,64
7,0,1,129
7,1,2,129
7,2,1,130
7,3,2,130
7,4,1,131
7,5,2,131
7,6,1,132
7,7,2,132
7,8,1,133
7,9,2,133
7,10,1,134
7,11,2,134
7,12,1,135
7,13,2,135
7,14,1,136
7,15,2,136
7,16,1,137
7,17,2,137
7,18,1,138
7,19,2,138
7,20,1,139
7,21,2,139
7,22,1,140
7,23,2,140
7,24,1,141
7,25,2,141
7,26,1,142
7,27,2,142
7,28,1,143
7,29,2,143
7,30,1,144
7,31,2,144
7,32,1,145
7,33,2,145
7,34,1,146
7,35,2,146
7,36,1,147
7,37,2,147
7,38,1,148
7,39,2,148
7,40,1,149
7,41,2,149
7,42,1,150
7,43,2,150
7,44,1,151
7,45,2,151
7,46,1,152
7,47,2,152
7,48,1,153
7,49,2,153
7,50,1,154
7,51,2,154
7,52,1,155
7,53,2,155
7,54,1,156
7,55,2,156
7,56,1,157
7,57,2,157
7,58,1,158
7,59,2,158
7,60,1,159
7,61,2,159
7,62,1,160
7,63,2,160
7,64,1,161
7,65,2,161
7,66,1,162
7,67,2,162
7,68,1,163
7,69,2,163
7,70,1,164
7,71,2,164
7,72,1,165
7,73,2,165
7,74,1,166
7,75,2,166
7,76,1,167
7,77,2,167
7,78,1,168
7,79,2,168
7,80,1,169
7,81,2,169
7,82,1,170
7,83,2,170
7,84,1,171
7,85,2,171
7,86,1,172
7,87,2,172
7,88,1,173
7,89,2,173
7,90,1,174
7,91,2,174
7,92,1,175
7,93,2,175
7,94,1,176
7,95,2,176
7,96,1,177
7,97,2,177
7,98,1,178
7,99,2,178
7,100,1,179
7,101,2,179
7,102,1,180
7,103,2,180
7,104,1,181
7,105,2,181
7,106,1,182
7,107,2,182
7,108,1,183
7,109,2,183
7,110,1,184
7,111,2,184
7,112,1,185
7,113,2,185
7,114,1,186
7,115,2,186
7,116,1,187
7,117,2,187
7,118,1,188
7,119,2,188
7,120,1,189
7,121,2,189
7,122,1,190
7,123,2,190
7,124,1,191
7,125,2,191
7,126,1,192
7,127,2,192
1,0,1,321
1,1,2,321
1,2,1,322
1,3,2,322
1,4,1,323
1,5,2,323
1,6,1,324
1,7,2,324
1,8,1,325
1,9,2,325
1,10,1,326
1,11,2,326
1,12,1,327
1,13,2,327
1,14,1,328
1,15,2,328
1,16,1,329
1,17,2,329
1,18,1,330
1,19,2,330
1,20,1,331
1,21,2,331
1,22,1,332
1,23,2,332
1,24,1,333
1,25,2,333
1,26,1,334
1,27,2,334
1,28,1,335
1,29,2,335
1,30,1,336
1,31,2,336
1,32,1,337
1,33,2,337
1,34,1,338
1,35,2,338
1,36,1,339
1,37,2,339
1,38,1,340
1,39,2,340
1,40,1,341
1,41,2,341
1,42,1,342
1,43,2,342
1,44,1,343
1,45,2,343
1,46,1,344
1,47,2,344
1,48,1,345
1,49,2,345
1,50,1,346
1,51,2,346
1,52,1,347
1,53,2,347
1,54,1,348
1,55,2,348
1,56,1,349
1,57,2,349
1,58,1,350
1,59,2,350
1,60,1,351
1,61,2,351
1,62,1,352
1,63,2,352
1,64,1,353
1,65,2,353
1,66,1,354
1,67,2,354
1,68,1,355
1,69,2,355
1,70,1,356
1,71,2,356
1,72,1,357
1,73,2,357
1,74,1,358
1,75,2,358
1,76,1,359
1,77,2,359
1,78,1,360
1,79,2,360
1,80,1,361
1,81,2,361
1,82,1,362
1,83,2,362
1,84,1,363
1,85,2,363
1,86,1,364
1,87,2,364
1,88,1,365
1,89,2,365
1,90,1,366
1,91,2,366
1,92,1,367
1,93,2,367
1,94,1,368
1,95,2,368
1,96,1,369
1,97,2,369
1,98,1,370
1,99,2,370
1,100,1,371
1,101,2,371
1,102,1,372
1,103,2,372
1,104,1,373
1,105,2,373
1,106,1,374
1,107,2,374
1,108,1,375
1,109,2,375
1,110,1,376
1,111,2,376
1,112,1,377
1,113,2,377
1,114,1,378
1,115,2,378
1,116,1,379
1,117,2,379
1,118,1,380
1,119,2,380
1,120,1,381
1,121,2,381
1,122,1,382
1,123,2,382
1,124,1,383
1,125,2,383
1,126,1,384
1,127,2,384
5,0,1,193
5,1,2,193
5,2,1,194
5,3,2,194
5,4,1,195
5,5,2,195
5,6,1,196
5,7,2,196
5,8,1,197
5,9,2,197
5,10,1,198
5,11,2,198
5,12,1,199
5,13,2,199
5,14,1,200
5,15,2,200
5,16,1,201
5,17,2,201
5,18,1,202
5,19,2,202
5,20,1,203
5,21,2,203
5,22,1,204
5,23,2,204
5,24,1,205
5,25,2,205
5,26,1,206
5,27,2,206
5,28,1,207
5,29,2,207
5,30,1,208
5,31,2,208
5,32,1,209
5,33,2,209
5,34,1,210
5,35,2,210
5,36,1,211
5,37,2,211
5,38,1,212
5,39,2,212
5,40,1,213
5,41,2,213
5,42,1,214
5,43,2,214
5,44,1,215
5,45,2,215
5,46,1,216
5,47,2,216
5,48,1,217
5,49,2,217
5,50,1,218
5,51,2,218
5,52,1,219
5,53,2,219
5,54,1,220
5,55,2,220
5,56,1,221
5,57,2,221
5,58,1,222
5,59,2,222
5,60,1,223
5,61,2,223
5,62,1,224
5,63,2,224
5,64,1,225
5,65,2,225
5,66,1,226
5,67,2,226
5,68,1,227
5,69,2,227
5,70,1,228
5,71,2,228
5,72,1,229
5,73,2,229
5,74,1,230
5,75,2,230
5,76,1,231
5,77,2,231
5,78,1,232
5,79,2,232
5,80,1,233
5,81,2,233
5,82,1,234
5,83,2,234
5,84,1,235
5,85,2,235
5,86,1,236
5,87,2,236
5,88,1,237
5,89,2,237
5,90,1,238
5,91,2,238
5,92,1,239
5,93,2,239
5,94,1,240
5,95,2,240
5,96,1,241
5,97,2,241
5,98,1,242
5,99,2,242
5,100,1,243
5,101,2,243
5,102,1,244
5,103,2,244
5,104,1,245
5,105,2,245
5,106,1,246
5,107,2,246
5,108,1,247
5,109,2,247
5,110,1,248
5,111,2,248
5,112,1,249
5,113,2,249
5,114,1,250
5,115,2,250
5,116,1,251
5,117,2,251
5,118,1,252
5,119,2,252
5,120,1,253
5,121,2,253
5,122,1,254
5,123,2,254
5,124,1,255
5,125,2,255
5,126,1,256
5,127,2,256
3,0,1,257
3,1,2,257
3,2,1,258
3,3,2,258
3,4,1,259
3,5,2,259
3,6,1,260
3,7,2,260
3,8,1,261
3,9,2,261
3,10,1,262
3,11,2,262
3,12,1,263
3,13,2,263
3,14,1,264
3,15,2,264
3,16,1,265
3,17,2,265
3,18,1,266
3,19,2,266
3,20,1,267
3,21,2,267
3,22,1,268
3,23,2,268
3,24,1,269
3,25,2,269
3,26,1,270
3,27,2,270
3,28,1,271
3,29,2,271
3,30,1,272
3,31,2,272
3,32,1,273
3,33,2,273
3,34,1,274
3,35,2,274
3,36,1,275
3,37,2,275
3,38,1,276
3,39,2,276
3,40,1,277
3,41,2,277
3,42,1,278
3,43,2,278
3,44,1,279
3,45,2,279
3,46,1,280
3,47,2,280
3,48,1,281
3,49,2,281
3,50,1,282
3,51,2,282
3,52,1,283
3,53,2,283
3,54,1,284
3,55,2,284
3,56,1,285
3,57,2,285
3,58,1,286
3,59,2,286
3,60,1,287
3,61,2,287
3,62,1,288
3,63,2,288
3,64,1,289
3,65,2,289
3,66,1,290
3,67,2,290
3,68,1,291
3,69,2,291
3,70,1,292
3,71,2,292
3,72,1,293
3,73,2,293
3,74,1,294
3,75,2,294
3,76,1,295
3,77,2,295
3,78,1,296
3,79,2,296
3,80,1,297
3,81,2,297
3,82,1,298
3,83,2,298
3,84,1,299
3,85,2,299
3,86,1,300
3,87,2,300
3,88,1,301
3,89,2,301
3,90,1,302
3,91,2,302
3,92,1,303
3,93,2,303
3,94,1,304
3,95,2,304
3,96,1,305
3,97,2,305
3,98,1,306
3,99,2,306
3,100,1,307
3,101,2,307
3,102,1,308
3,103,2,308
3,104,1,309
3,105,2,309
3,106,1,310
3,107,2,310
3,108,1,311
3,109,2,311
3,110,1,312
3,111,2,312
3,112,1,313
3,113,2,313
3,114,1,314
3,115,2,314
3,116,1,315
3,117,2,315
3,118,1,316
3,119,2,316
3,120,1,317
3,121,2,317
3,122,1,318
3,123,2,318
3,124,1,319
3,125,2,319
3,126,1,320
3,127,2,320
