chip,channel,pad_x,pad_y
0,1,19,16
0,0,19,17
0,3,19,14
0,2,19,15
0,5,19,12
0,4,19,13
0,7,19,10
0,6,19,11
0,9,19,8
0,8,19,9
0,11,19,6
0,10,19,7
0,13,19,4
0,12,19,5
0,15,19,2
0,14,19,3
0,17,18,16
0,16,18,17
0,19,18,14
0,18,18,15
0,21,18,12
0,20,18,13
0,23,18,10
0,22,18,11
0,25,18,8
0,24,18,9
0,27,18,6
0,26,18,7
0,29,18,4
0,28,18,5
0,31,18,2
0,30,18,3
0,33,17,18
0,32,17,19
0,35,17,16
0,34,17,17
0,37,17,14
0,36,17,15
0,39,17,12
0,38,17,13
0,41,17,10
0,40,17,11
0,43,17,8
0,42,17,9
0,45,17,6
0,44,17,7
0,47,17,4
0,46,17,5
0,49,17,2
0,48,17,3
0,51,17,0
0,50,17,1
0,53,16,18
0,52,16,19
0,55,16,16
0,54,16,17
0,57,16,14
0,56,16,15
0,59,16,12
0,58,16,13
0,61,16,10
0,60,16,11
0,63,16,8
0,62,16,9
0,65,16,6
0,64,16,7
0,67,16,4
0,66,16,5
0,69,16,2
0,68,16,3
0,71,16,0
0,70,16,1
0,73,15,18
0,72,15,19
0,75,15,16
0,74,15,17
0,77,15,14
0,76,15,15
0,79,15,6
0,78,15,13
0,81,15,4
0,80,15,5
0,83,15,2
0,82,15,3
0,85,15,0
0,84,15,1
0,87,14,18
0,86,14,19
0,89,14,16
0,88,14,17
0,91,14,4
0,90,14,15
0,93,14,2
0,92,14,3
0,95,14,0
0,94,14,1
0,97,13,18
0,96,13,19
0,99,13,16
0,98,13,17
0,101,13,2
0,100,13,3
0,103,13,0
0,102,13,1
0,105,12,18
0,104,12,19
0,107,12,16
0,106,12,17
0,109,12,2
0,108,12,3
0,111,12,0
0,110,12,1
0,113,11,18
0,112,11,19
0,115,11,16
0,114,11,17
0,117,11,2
0,116,11,3
0,119,11,0
0,118,11,1
0,121,10,18
0,120,10,19
0,123,10,16
0,122,10,17
0,125,10,2
0,124,10,3
0,127,10,0
0,126,10,1
1,0,15,12
1,1,15,11
1,2,15,10
1,3,15,9
1,4,15,8
1,5,15,7
1,6,14,14
1,7,14,13
1,8,14,12
1,9,14,11
1,10,14,10
1,11,14,9
1,12,14,8
1,13,14,7
1,14,14,6
1,15,14,5
1,16,13,15
1,17,13,14
1,18,13,13
1,19,13,12
1,20,13,11
1,21,13,10
1,22,13,9
1,23,13,8
1,24,13,7
1,25,13,6
1,26,13,5
1,27,13,4
1,28,12,15
1,29,12,14
1,30,12,13
1,31,12,12
1,32,12,11
1,33,12,10
1,34,12,9
1,35,12,8
1,36,12,7
1,37,12,6
1,38,12,5
1,39,12,4
1,40,11,15
1,41,11,14
1,42,11,13
1,43,11,12
1,44,11,11
1,45,11,10
1,46,11,9
1,47,11,8
1,48,11,7
1,49,11,6
1,50,11,5
1,51,11,4
1,52,10,15
1,53,10,14
1,54,10,13
1,55,10,12
1,56,10,11
1,57,10,10
1,58,10,9
1,59,10,8
1,60,10,7
1,61,10,6
1,62,10,5
1,63,10,4
1,64,9,4
1,65,9,5
1,66,9,6
1,67,9,7
1,68,9,8
1,69,9,9
1,70,9,10
1,71,9,11
1,72,9,12
1,73,9,13
1,74,9,14
1,75,9,15
1,76,8,4
1,77,8,5
1,78,8,6
1,79,8,7
1,80,8,8
1,81,8,9
1,82,8,10
1,83,8,11
1,84,8,12
1,85,8,13
1,86,8,14
1,87,8,15
1,88,7,4
1,89,7,5
1,90,7,6
1,91,7,7
1,92,7,8
1,93,7,9
1,94,7,10
1,95,7,11
1,96,7,12
1,97,7,13
1,98,7,14
1,99,7,15
1,100,6,4
1,101,6,5
1,102,6,6
1,103,6,7
1,104,6,8
1,105,6,9
1,106,6,10
1,107,6,11
1,108,6,12
1,109,6,13
1,110,6,14
1,111,6,15
1,112,5,5
1,113,5,6
1,114,5,7
1,115,5,8
1,116,5,9
1,117,5,10
1,118,5,11
1,119,5,12
1,120,5,13
1,121,5,14
1,122,4,7
1,123,4,8
1,124,4,9
1,125,4,10
1,126,4,11
1,127,4,12
2,1,9,0
2,0,9,1
2,3,9,2
2,2,9,3
2,5,9,16
2,4,9,17
2,7,9,18
2,6,9,19
2,9,8,0
2,8,8,1
2,11,8,2
2,10,8,3
2,13,8,16
2,12,8,17
2,15,8,18
2,14,8,19
2,17,7,0
2,16,7,1
2,19,7,2
2,18,7,3
2,21,7,16
2,20,7,17
2,23,7,18
2,22,7,19
2,25,6,0
2,24,6,1
2,27,6,2
2,26,6,3
2,29,6,16
2,28,6,17
2,31,6,18
2,30,6,19
2,33,5,0
2,32,5,1
2,35,5,2
2,34,5,3
2,37,5,4
2,36,5,15
2,39,5,16
2,38,5,17
2,41,5,18
2,40,5,19
2,43,4,0
2,42,4,1
2,45,4,2
2,44,4,3
2,47,4,4
2,46,4,5
2,49,4,6
2,48,4,13
2,51,4,14
2,50,4,15
2,53,4,16
2,52,4,17
2,55,4,18
2,54,4,19
2,57,3,0
2,56,3,1
2,59,3,2
2,58,3,3
2,61,3,4
2,60,3,5
2,63,3,6
2,62,3,7
2,65,3,8
2,64,3,9
2,67,3,10
2,66,3,11
2,69,3,12
2,68,3,13
2,71,3,14
2,70,3,15
2,73,3,16
2,72,3,17
2,75,3,18
2,74,3,19
2,77,2,0
2,76,2,1
2,79,2,2
2,78,2,3
2,81,2,4
2,80,2,5
2,83,2,6
2,82,2,7
2,85,2,8
2,84,2,9
2,87,2,10
2,86,2,11
2,89,2,12
2,88,2,13
2,91,2,14
2,90,2,15
2,93,2,16
2,92,2,17
2,95,2,18
2,94,2,19
2,97,1,2
2,96,1,3
2,99,1,4
2,98,1,5
2,101,1,6
2,100,1,7
2,103,1,8
2,102,1,9
2,105,1,10
2,104,1,11
2,107,1,12
2,106,1,13
2,109,1,14
2,108,1,15
2,111,1,16
2,110,1,17
2,113,0,2
2,112,0,3
2,115,0,4
2,114,0,5
2,117,0,6
2,116,0,7
2,119,0,8
2,118,0,9
2,121,0,10
2,120,0,11
2,123,0,12
2,122,0,13
2,125,0,14
2,124,0,15
2,127,0,16
2,126,0,17
