# Mapping for new TMM chambers with 358 strips (LMU, NTUA)
# First connector on main view (X), called C0 for chamber Tmm type
# 17.03.2016 J.Bortfeldt
# panasonic pin  # multilayer # layer # readout # strip
2	0	0	Y	263
3	0	0	Y	262
4	0	0	Y	264
5	0	0	Y	261
6	0	0	Y	265
7	0	0	Y	260
8	0	0	Y	266
9	0	0	Y	259
10	0	0	Y	267
11	0	0	Y	258
12	0	0	Y	268
13	0	0	Y	257
14	0	0	Y	269
15	0	0	Y	256
16	0	0	Y	270
17	0	0	Y	255
18	0	0	Y	271
19	0	0	Y	254
20	0	0	Y	272
21	0	0	Y	253
22	0	0	Y	273
23	0	0	Y	252
24	0	0	Y	274
25	0	0	Y	251
26	0	0	Y	275
27	0	0	Y	250
28	0	0	Y	276
29	0	0	Y	249
30	0	0	Y	277
31	0	0	Y	248
32	0	0	Y	278
33	0	0	Y	247
34	0	0	Y	279
35	0	0	Y	246
36	0	0	Y	280
37	0	0	Y	245
38	0	0	Y	281
39	0	0	Y	244
40	0	0	Y	282
41	0	0	Y	243
42	0	0	Y	283
43	0	0	Y	242
44	0	0	Y	284
45	0	0	Y	241
46	0	0	Y	285
47	0	0	Y	240
48	0	0	Y	286
49	0	0	Y	239
50	0	0	Y	287
51	0	0	Y	238
52	0	0	Y	288
53	0	0	Y	237
54	0	0	Y	289
55	0	0	Y	-1
56	0	0	Y	290
57	0	0	Y	-1
58	0	0	Y	291
59	0	0	Y	-1
60	0	0	Y	292
61	0	0	Y	-1
62	0	0	Y	293
63	0	0	Y	-1
64	0	0	Y	294
65	0	0	Y	-1
66	0	0	Y	295
67	0	0	Y	358
68	0	0	Y	296
69	0	0	Y	357
70	0	0	Y	297
71	0	0	Y	356
72	0	0	Y	298
73	0	0	Y	355
74	0	0	Y	299
75	0	0	Y	354
76	0	0	Y	300
77	0	0	Y	353
78	0	0	Y	301
79	0	0	Y	352
80	0	0	Y	302
81	0	0	Y	351
82	0	0	Y	303
83	0	0	Y	350
84	0	0	Y	304
85	0	0	Y	349
86	0	0	Y	305
87	0	0	Y	348
88	0	0	Y	306
89	0	0	Y	347
90	0	0	Y	307
91	0	0	Y	346
92	0	0	Y	308
93	0	0	Y	345
94	0	0	Y	309
95	0	0	Y	344
96	0	0	Y	310
97	0	0	Y	343
98	0	0	Y	311
99	0	0	Y	342
100	0	0	Y	312
101	0	0	Y	341
102	0	0	Y	313
103	0	0	Y	340
104	0	0	Y	314
105	0	0	Y	339
106	0	0	Y	315
107	0	0	Y	338
108	0	0	Y	316
109	0	0	Y	337
110	0	0	Y	317
111	0	0	Y	336
112	0	0	Y	318
113	0	0	Y	335
114	0	0	Y	319
115	0	0	Y	334
116	0	0	Y	320
117	0	0	Y	333
118	0	0	Y	321
119	0	0	Y	332
120	0	0	Y	322
121	0	0	Y	331
122	0	0	Y	323
123	0	0	Y	330
124	0	0	Y	324
125	0	0	Y	329
126	0	0	Y	325
127	0	0	Y	328
128	0	0	Y	326
129	0	0	Y	327

