chip,pin,strip
0,2,33
0,3,32
0,4,34
0,5,31
0,6,35
0,7,30
0,8,36
0,9,29
0,10,37
0,11,28
0,12,38
0,13,27
0,14,39
0,15,26
0,16,40
0,17,25
0,18,41
0,19,24
0,20,42
0,21,23
0,22,43
0,23,22
0,24,44
0,25,21
0,26,45
0,27,20
0,28,46
0,29,19
0,30,47
0,31,18
0,32,48
0,33,17
0,34,49
0,35,16
0,36,50
0,37,15
0,38,51
0,39,14
0,40,52
0,41,13
0,42,53
0,43,12
0,44,54
0,45,11
0,46,55
0,47,10
0,48,56
0,49,9
0,50,57
0,51,8
0,52,58
0,53,7
0,54,59
0,55,6
0,56,60
0,57,5
0,58,61
0,59,4
0,60,62
0,61,3
0,62,63
0,63,2
0,64,64
0,65,1
0,66,65
0,67,-1
0,68,66
0,69,-1
0,70,67
0,71,-1
0,72,68
0,73,-1
0,74,69
0,75,-1
0,76,70
0,77,-1
0,78,71
0,79,122
0,80,72
0,81,121
0,82,73
0,83,120
0,84,74
0,85,119
0,86,75
0,87,118
0,88,76
0,89,117
0,90,77
0,91,116
0,92,78
0,93,115
0,94,79
0,95,114
0,96,80
0,97,113
0,98,81
0,99,112
0,100,82
0,101,111
0,102,83
0,103,110
0,104,84
0,105,109
0,106,85
0,107,108
0,108,86
0,109,107
0,110,87
0,111,106
0,112,88
0,113,105
0,114,89
0,115,104
0,116,90
0,117,103
0,118,91
0,119,102
0,120,92
0,121,101
0,122,93
0,123,100
0,124,94
0,125,99
0,126,95
0,127,98
0,128,96
0,129,97
1,2,148
1,3,147
1,4,149
1,5,146
1,6,150
1,7,145
1,8,151
1,9,144
1,10,152
1,11,143
1,12,153
1,13,142
1,14,154
1,15,141
1,16,155
1,17,140
1,18,156
1,19,139
1,20,157
1,21,138
1,22,158
1,23,137
1,24,159
1,25,136
1,26,160
1,27,135
1,28,161
1,29,134
1,30,162
1,31,133
1,32,163
1,33,132
1,34,164
1,35,131
1,36,165
1,37,130
1,38,166
1,39,129
1,40,167
1,41,128
1,42,168
1,43,127
1,44,169
1,45,126
1,46,170
1,47,125
1,48,171
1,49,124
1,50,172
1,51,123
1,52,173
1,53,-1
1,54,174
1,55,-1
1,56,175
1,57,-1
1,58,176
1,59,-1
1,60,177
1,61,-1
1,62,178
1,63,-1
1,64,179
1,65,-1
1,66,180
1,67,-1
1,68,181
1,69,-1
1,70,182
1,71,-1
1,72,183
1,73,-1
1,74,184
1,75,-1
1,76,185
1,77,-1
1,78,186
1,79,-1
1,80,187
1,81,236
1,82,188
1,83,235
1,84,189
1,85,234
1,86,190
1,87,233
1,88,191
1,89,232
1,90,192
1,91,231
1,92,193
1,93,230
1,94,194
1,95,229
1,96,195
1,97,228
1,98,196
1,99,227
1,100,197
1,101,226
1,102,198
1,103,225
1,104,199
1,105,224
1,106,200
1,107,223
1,108,201
1,109,222
1,110,202
1,111,221
1,112,203
1,113,220
1,114,204
1,115,219
1,116,205
1,117,218
1,118,206
1,119,217
1,120,207
1,121,216
1,122,208
1,123,215
1,124,209
1,125,214
1,126,210
1,127,213
1,128,211
1,129,212
2,2,263
2,3,262
2,4,264
2,5,261
2,6,265
2,7,260
2,8,266
2,9,259
2,10,267
2,11,258
2,12,268
2,13,257
2,14,269
2,15,256
2,16,270
2,17,255
2,18,271
2,19,254
2,20,272
2,21,253
2,22,273
2,23,252
2,24,274
2,25,251
2,26,275
2,27,250
2,28,276
2,29,249
2,30,277
2,31,248
2,32,278
2,33,247
2,34,279
2,35,246
2,36,280
2,37,245
2,38,281
2,39,244
2,40,282
2,41,243
2,42,283
2,43,242
2,44,284
2,45,241
2,46,285
2,47,240
2,48,286
2,49,239
2,50,287
2,51,238
2,52,288
2,53,237
2,54,289
2,55,-1
2,56,290
2,57,-1
2,58,291
2,59,-1
2,60,292
2,61,-1
2,62,293
2,63,-1
2,64,294
2,65,-1
2,66,295
2,67,358
2,68,296
2,69,357
2,70,297
2,71,356
2,72,298
2,73,355
2,74,299
2,75,354
2,76,300
2,77,353
2,78,301
2,79,352
2,80,302
2,81,351
2,82,303
2,83,350
2,84,304
2,85,349
2,86,305
2,87,348
2,88,306
2,89,347
2,90,307
2,91,346
2,92,308
2,93,345
2,94,309
2,95,344
2,96,310
2,97,343
2,98,311
2,99,342
2,100,312
2,101,341
2,102,313
2,103,340
2,104,314
2,105,339
2,106,315
2,107,338
2,108,316
2,109,337
2,110,317
2,111,336
2,112,318
2,113,335
2,114,319
2,115,334
2,116,320
2,117,333
2,118,321
2,119,332
2,120,322
2,121,331
2,122,323
2,123,330
2,124,324
2,125,329
2,126,325
2,127,328
2,128,326
2,129,327