chip,pin,strip
0,2,256
1,2,128
0,3,255
1,3,127
0,4,254
1,4,126
0,5,253
1,5,125
0,6,252
1,6,124
0,7,251
1,7,123
0,8,250
1,8,122
0,9,249
1,9,121
0,10,248
1,10,120
0,11,247
1,11,119
0,12,246
1,12,118
0,13,245
1,13,117
0,14,244
1,14,116
0,15,243
1,15,115
0,16,242
1,16,114
0,17,241
1,17,113
0,18,240
1,18,112
0,19,239
1,19,111
0,20,238
1,20,110
0,21,237
1,21,109
0,22,236
1,22,108
0,23,235
1,23,107
0,24,234
1,24,106
0,25,233
1,25,105
0,26,232
1,26,104
0,27,231
1,27,103
0,28,230
1,28,102
0,29,229
1,29,101
0,32,228
1,32,100
0,31,227
1,31,99
0,30,226
1,30,98
0,33,225
1,33,97
0,34,224
1,34,96
0,35,223
1,35,95
0,36,222
1,36,94
0,37,221
1,37,93
0,38,220
1,38,92
0,39,219
1,39,91
0,40,218
1,40,90
0,41,217
1,41,89
0,42,216
1,42,88
0,43,215
1,43,87
0,44,214
1,44,86
0,45,213
1,45,85
0,46,212
1,46,84
0,47,211
1,47,83
0,48,210
1,48,82
0,49,209
1,49,81
0,50,208
1,50,80
0,51,207
1,51,79
0,52,206
1,52,78
0,53,205
1,53,77
0,54,204
1,54,76
0,55,203
1,55,75
0,56,202
1,56,74
0,57,201
1,57,73
0,58,200
1,58,72
0,59,199
1,59,71
0,60,198
1,60,70
0,61,197
1,61,69
0,62,196
1,62,68
0,63,195
1,63,67
0,64,194
1,64,66
0,65,193
1,65,65
0,66,192
1,66,64
0,67,191
1,67,63
0,68,190
1,68,62
0,69,189
1,69,61
0,70,188
1,70,60
0,71,187
1,71,59
0,72,186
1,72,58
0,73,185
1,73,57
0,74,184
1,74,56
0,75,183
1,75,55
0,76,182
1,76,54
0,77,181
1,77,53
0,78,180
1,78,52
0,79,179
1,79,51
0,80,178
1,80,50
0,81,177
1,81,49
0,82,176
1,82,48
0,83,175
1,83,47
0,84,174
1,84,46
0,85,173
1,85,45
0,86,172
1,86,44
0,87,171
1,87,43
0,88,170
1,88,42
0,89,169
1,89,41
0,90,168
1,90,40
0,91,167
1,91,39
0,92,166
1,92,38
0,93,165
1,93,37
0,94,164
1,94,36
0,95,163
1,95,35
0,96,162
1,96,34
0,97,161
1,97,33
0,98,160
1,98,32
0,99,159
1,99,31
0,100,158
1,100,30
0,101,157
1,101,29
0,102,156
1,102,28
0,103,155
1,103,27
0,104,154
1,104,26
0,105,153
1,105,25
0,106,152
1,106,24
0,107,151
1,107,23
0,108,150
1,108,22
0,109,149
1,109,21
0,112,148
1,112,20
0,111,147
1,111,19
0,110,146
1,110,18
0,113,145
1,113,17
0,116,144
1,116,16
0,115,143
1,115,15
0,114,142
1,114,14
0,117,141
1,117,13
0,120,140
1,120,12
0,119,139
1,119,11
0,118,138
1,118,10
0,121,137
1,121,9
0,124,136
1,124,8
0,123,135
1,123,7
0,122,134
1,122,6
0,125,133
1,125,5
0,128,132
1,128,4
0,127,131
1,127,3
0,126,130
1,126,1
0,129,129
1,129,2
